<?xml version="1.0" encoding="UTF-8" standalone="no"?>
<svg
   xmlns:dc="http://purl.org/dc/elements/1.1/"
   xmlns:cc="http://creativecommons.org/ns#"
   xmlns:rdf="http://www.w3.org/1999/02/22-rdf-syntax-ns#"
   xmlns:svg="http://www.w3.org/2000/svg"
   xmlns="http://www.w3.org/2000/svg"
   id="svg5908"
   version="1.1"
   viewBox="0 0 12.181485 12.193439"
   height="12.193439mm"
   width="12.181485mm">
  <defs
     id="defs5902" />
  <metadata
     id="metadata5905">
    <rdf:RDF>
      <cc:Work
         rdf:about="">
        <dc:format>image/svg+xml</dc:format>
        <dc:type
           rdf:resource="http://purl.org/dc/dcmitype/StillImage" />
        <dc:title></dc:title>
      </cc:Work>
    </rdf:RDF>
  </metadata>
  <g
     transform="translate(-80.843782,-163.53161)"
     id="layer1">
    <path
       id="path821"
       d="m 81.642857,169.61702 c 0,0 2.797152,-5.29166 5.291666,-5.29166 2.494514,0 5.291668,5.29166 5.291668,5.29166 v 0"
       style="fill:none;fill-rule:evenodd;stroke:#000000;stroke-width:1.58749998;stroke-linecap:round;stroke-linejoin:miter;stroke-miterlimit:4;stroke-dasharray:none;stroke-opacity:1" />
  </g>
</svg>
